{
    "presets": ["@babel/preset-env"],
    "plugins": [
        ["babel-plugin-inline-import", {
            "extensions": [
                ".json",
                ".glsl"
            ]
        }],
        "@babel/plugin-transform-runtime",
        ["minify-replace", {
            "replacements": [{
                "identifierName": "__DEBUG__",
                "replacement": {
                    "type": "booleanLiteral",
                    "value": false
                }
            }]
        }],
        ["minify-dead-code-elimination"]
    ],
    "env": {
        "test": {
            "presets": [
                "jest",
                [
                    "@babel/preset-env"
                ]
            ]
        }
    }
}
